module github.com/grafana/grafana

go 1.21

// Override docker/docker to avoid:
// go: github.com/drone-runners/drone-runner-docker@v1.8.2 requires
// github.com/docker/docker@v0.0.0-00010101000000-000000000000: invalid version: unknown revision 000000000000
replace github.com/docker/docker => github.com/moby/moby v23.0.4+incompatible

// contains openapi encoder fixes. remove ASAP
replace cuelang.org/go => github.com/grafana/cue v0.0.0-20230926092038-971951014e3f // @grafana/grafana-as-code

// TODO: following otel replaces to pin the libraries so k8s.io/apiserver doesn't downgrade us inadvertantly
// will need bumps as we upgrade otel in Grafana
replace (
	go.opentelemetry.io/contrib/instrumentation/net/http/otelhttp => go.opentelemetry.io/contrib/instrumentation/net/http/otelhttp v0.46.1 // @grafana/backend-platform
	go.opentelemetry.io/otel => go.opentelemetry.io/otel v1.21.0 // @grafana/backend-platform
	go.opentelemetry.io/otel/metric => go.opentelemetry.io/otel/metric v1.21.0 // @grafana/backend-platform
	go.opentelemetry.io/otel/trace => go.opentelemetry.io/otel/trace v1.21.0 // @grafana/backend-platform
)

// Override Prometheus version because Prometheus v2.X is tagged as v0.X for Go modules purposes and Go assumes
// that v1.Y is higher than v0.X, so when we resolve dependencies if any dependency imports v1.Y we'd
// import that instead of v0.X even though v0.X is newer.
replace github.com/prometheus/prometheus => github.com/prometheus/prometheus v0.43.0

// The v0.120.0 is needed for now to be compatible with grafana/thema.
replace github.com/getkin/kin-openapi => github.com/getkin/kin-openapi v0.120.0

require (
	cloud.google.com/go/storage v1.30.1 // @grafana/backend-platform
	cuelang.org/go v0.6.0-0.dev // @grafana/grafana-as-code
	github.com/Azure/azure-sdk-for-go v68.0.0+incompatible // @grafana/backend-platform
	github.com/Azure/go-autorest/autorest v0.11.29 // @grafana/backend-platform
	github.com/BurntSushi/toml v1.3.2 // @grafana/grafana-authnz-team
	github.com/Masterminds/semver v1.5.0 // @grafana/backend-platform
	github.com/VividCortex/mysqlerr v0.0.0-20170204212430-6c6b55f8796f // @grafana/backend-platform
	github.com/aws/aws-sdk-go v1.44.325 // @grafana/aws-datasources
	github.com/beevik/etree v1.2.0 // @grafana/backend-platform
	github.com/benbjohnson/clock v1.3.5 // @grafana/alerting-squad-backend
	github.com/blang/semver/v4 v4.0.0 // @grafana/grafana-delivery
	github.com/bradfitz/gomemcache v0.0.0-20190913173617-a41fca850d0b // @grafana/backend-platform
	github.com/centrifugal/centrifuge v0.30.2 // @grafana/grafana-app-platform-squad
	github.com/crewjam/saml v0.4.13 // @grafana/grafana-authnz-team
	github.com/fatih/color v1.15.0 // @grafana/backend-platform
	github.com/gchaincl/sqlhooks v1.3.0 // @grafana/backend-platform
	github.com/go-ldap/ldap/v3 v3.4.4 // @grafana/grafana-authnz-team
	github.com/go-openapi/strfmt v0.21.9 // @grafana/alerting-squad-backend
	github.com/go-redis/redis/v8 v8.11.5 // @grafana/backend-platform
	github.com/go-sourcemap/sourcemap v2.1.3+incompatible // @grafana/backend-platform
	github.com/go-sql-driver/mysql v1.7.1 // @grafana/backend-platform
	github.com/go-stack/stack v1.8.1 // @grafana/backend-platform
	github.com/gobwas/glob v0.2.3 // @grafana/backend-platform
	github.com/gofrs/uuid v4.4.0+incompatible // indirect
	github.com/gogo/protobuf v1.3.2 // @grafana/alerting-squad-backend
	github.com/golang/mock v1.6.0 // @grafana/alerting-squad-backend
	github.com/golang/snappy v0.0.4 // @grafana/alerting-squad-backend
	github.com/google/go-cmp v0.6.0 // @grafana/backend-platform
	github.com/google/uuid v1.5.0 // @grafana/backend-platform
	github.com/google/wire v0.5.0 // @grafana/backend-platform
	github.com/gorilla/websocket v1.5.0 // @grafana/grafana-app-platform-squad
	github.com/grafana/alerting v0.0.0-20231221110807-c17ec6241a66 // @grafana/alerting-squad-backend
	github.com/grafana/cuetsy v0.1.11 // @grafana/grafana-as-code
	github.com/grafana/grafana-aws-sdk v0.19.1 // @grafana/aws-datasources
	github.com/grafana/grafana-azure-sdk-go v1.11.0 // @grafana/backend-platform
	github.com/grafana/grafana-plugin-sdk-go v0.198.0 // @grafana/plugins-platform-backend
	github.com/grpc-ecosystem/go-grpc-middleware v1.4.0 // @grafana/backend-platform
	github.com/hashicorp/go-hclog v1.6.2 // @grafana/plugins-platform-backend
	github.com/hashicorp/go-plugin v1.6.0 // @grafana/plugins-platform-backend
	github.com/hashicorp/go-version v1.6.0 // @grafana/backend-platform
	github.com/hashicorp/hcl/v2 v2.17.0 // @grafana/alerting-squad-backend
	github.com/influxdata/influxdb-client-go/v2 v2.12.3 // @grafana/observability-metrics
	github.com/influxdata/line-protocol v0.0.0-20210311194329-9aa0e372d097 // @grafana/grafana-app-platform-squad
	github.com/jmespath/go-jmespath v0.4.0 // @grafana/backend-platform
	github.com/json-iterator/go v1.1.12 // @grafana/backend-platform
	github.com/lib/pq v1.10.9 // @grafana/backend-platform
	github.com/linkedin/goavro/v2 v2.10.0 // @grafana/backend-platform
	github.com/m3db/prometheus_remote_client_golang v0.4.4 // @grafana/backend-platform
	github.com/magefile/mage v1.15.0 // @grafana/grafana-delivery
	github.com/mattn/go-isatty v0.0.18 // @grafana/backend-platform
	github.com/mattn/go-sqlite3 v1.14.19 // @grafana/backend-platform
	github.com/matttproud/golang_protobuf_extensions v1.0.4 // @grafana/alerting-squad-backend
	github.com/mwitkow/go-conntrack v0.0.0-20190716064945-2f068394615f // @grafana/grafana-operator-experience-squad
	github.com/opentracing/opentracing-go v1.2.0 // indirect
	github.com/patrickmn/go-cache v2.1.0+incompatible // @grafana/alerting-squad-backend
	github.com/pkg/browser v0.0.0-20210911075715-681adbf594b8 // indirect
	github.com/pkg/errors v0.9.1 // indirect
	github.com/prometheus/alertmanager v0.25.0 // @grafana/alerting-squad-backend
	github.com/prometheus/client_golang v1.18.0 // @grafana/alerting-squad-backend
	github.com/prometheus/client_model v0.5.0 // @grafana/backend-platform
	github.com/prometheus/common v0.45.0 // @grafana/alerting-squad-backend
	github.com/prometheus/prometheus v1.8.2-0.20221021121301-51a44e6657c3 // @grafana/alerting-squad-backend
	github.com/robfig/cron/v3 v3.0.1 // @grafana/backend-platform
	github.com/russellhaering/goxmldsig v1.4.0 // @grafana/backend-platform
	github.com/stretchr/testify v1.8.4 // @grafana/backend-platform
	github.com/teris-io/shortid v0.0.0-20171029131806-771a37caa5cf // @grafana/backend-platform
	github.com/ua-parser/uap-go v0.0.0-20211112212520-00c877edfe0f // @grafana/backend-platform
	github.com/uber/jaeger-client-go v2.30.0+incompatible // indirect
	github.com/urfave/cli/v2 v2.25.0 // @grafana/backend-platform
	github.com/vectordotdev/go-datemath v0.1.1-0.20220323213446-f3954d0b18ae // @grafana/backend-platform
	github.com/yalue/merged_fs v1.2.2 // @grafana/grafana-as-code
	github.com/yudai/gojsondiff v1.0.0 // @grafana/backend-platform
	go.opentelemetry.io/collector/pdata v1.0.0-rc8 // @grafana/backend-platform
	go.opentelemetry.io/contrib/instrumentation/net/http/httptrace/otelhttptrace v0.46.1 // @grafana/grafana-operator-experience-squad
	go.opentelemetry.io/otel/exporters/jaeger v1.10.0 // @grafana/backend-platform
	go.opentelemetry.io/otel/sdk v1.21.0 // @grafana/backend-platform
	go.opentelemetry.io/otel/trace v1.21.0 // @grafana/backend-platform
	golang.org/x/crypto v0.17.0 // @grafana/backend-platform
	golang.org/x/exp v0.0.0-20230321023759-10a507213a29 // @grafana/alerting-squad-backend
	golang.org/x/net v0.19.0 // @grafana/oss-big-tent @grafana/partner-datasources
	golang.org/x/oauth2 v0.15.0 // @grafana/grafana-authnz-team
	golang.org/x/sync v0.4.0 // @grafana/alerting-squad-backend
	golang.org/x/time v0.3.0 // @grafana/backend-platform
	golang.org/x/tools v0.13.0 // @grafana/grafana-as-code
	gonum.org/v1/gonum v0.12.0 // @grafana/observability-metrics
	google.golang.org/api v0.148.0 // @grafana/backend-platform
	google.golang.org/grpc v1.60.1 // @grafana/plugins-platform-backend
	google.golang.org/protobuf v1.32.0 // @grafana/plugins-platform-backend
	gopkg.in/alexcesaro/quotedprintable.v3 v3.0.0-20150716171945-2caba252f4dc // indirect
	gopkg.in/ini.v1 v1.67.0 // @grafana/alerting-squad-backend
	gopkg.in/mail.v2 v2.3.1 // @grafana/backend-platform
	gopkg.in/yaml.v2 v2.4.0 // indirect
	gopkg.in/yaml.v3 v3.0.1 // @grafana/alerting-squad-backend
	xorm.io/builder v0.3.6 // @grafana/backend-platform
	xorm.io/core v0.7.3 // @grafana/backend-platform
	xorm.io/xorm v0.8.2 // @grafana/alerting-squad-backend
)

require (
	github.com/Azure/azure-sdk-for-go/sdk/internal v1.3.0 // indirect
	github.com/Azure/go-autorest v14.2.0+incompatible // indirect
	github.com/Azure/go-autorest/autorest/date v0.3.0 // indirect
	github.com/Azure/go-autorest/autorest/to v0.4.0 // indirect
	github.com/Azure/go-autorest/autorest/validation v0.3.1 // indirect
	github.com/Azure/go-autorest/logger v0.2.1 // indirect
	github.com/Azure/go-autorest/tracing v0.6.0 // indirect
	github.com/FZambia/eagle v0.1.0 // indirect
	github.com/alecthomas/units v0.0.0-20211218093645-b94a6e3cc137 // indirect
	github.com/andybalholm/brotli v1.0.4 // @grafana/partner-datasources
	github.com/asaskevich/govalidator v0.0.0-20230301143203-a9d515a09cc2 // indirect
	github.com/beorn7/perks v1.0.1 // indirect
	github.com/cenkalti/backoff/v4 v4.2.1 // indirect
	github.com/cespare/xxhash/v2 v2.2.0 // indirect
	github.com/cheekybits/genny v1.0.0 // indirect
	github.com/cockroachdb/apd/v2 v2.0.2 // indirect
	github.com/deepmap/oapi-codegen v1.12.4 // indirect
	github.com/dennwc/varint v1.0.0 // indirect
	github.com/dgryski/go-rendezvous v0.0.0-20200823014737-9f7001d12a5f // indirect
	github.com/docker/go-units v0.5.0 // indirect
	github.com/edsrzf/mmap-go v1.1.0 // indirect
	github.com/emicklei/proto v1.10.0 // indirect
	github.com/go-kit/log v0.2.1 //  @grafana/backend-platform
	github.com/go-logfmt/logfmt v0.6.0 // indirect
	github.com/go-openapi/analysis v0.21.4 // indirect
	github.com/go-openapi/errors v0.20.4 // indirect
	github.com/go-openapi/jsonpointer v0.20.0 // indirect
	github.com/go-openapi/jsonreference v0.20.2 // indirect
	github.com/go-openapi/loads v0.21.2 // @grafana/alerting-squad-backend
	github.com/go-openapi/runtime v0.26.2 // @grafana/alerting-squad-backend
	github.com/go-openapi/spec v0.20.11 // indirect
	github.com/go-openapi/swag v0.22.4 // indirect
	github.com/go-openapi/validate v0.22.3 // indirect
	github.com/golang-jwt/jwt/v4 v4.5.0 // @grafana/backend-platform
	github.com/golang-sql/civil v0.0.0-20220223132316-b832511892a9 // indirect
	github.com/golang/glog v1.1.2 // indirect
	github.com/golang/groupcache v0.0.0-20210331224755-41bb18bfe9da // indirect
	github.com/golang/protobuf v1.5.3 // @grafana/backend-platform
	github.com/google/btree v1.1.2 // indirect
	github.com/google/flatbuffers v23.1.21+incompatible // indirect
	github.com/googleapis/gax-go/v2 v2.12.0 // @grafana/backend-platform
	github.com/gorilla/mux v1.8.0 // @grafana/backend-platform
	github.com/grafana/grafana-google-sdk-go v0.1.0 // @grafana/partner-datasources
	github.com/grpc-ecosystem/go-grpc-prometheus v1.2.1-0.20191002090509-6af20e3a5340 // indirect
	github.com/hashicorp/errwrap v1.1.0 // indirect
	github.com/hashicorp/go-msgpack v0.5.5 // indirect
	github.com/hashicorp/go-multierror v1.1.1 // @grafana/alerting-squad
	github.com/hashicorp/go-sockaddr v1.0.2 // indirect
	github.com/hashicorp/golang-lru v0.6.0 // indirect
	github.com/hashicorp/yamux v0.1.1 // indirect
	github.com/igm/sockjs-go/v3 v3.0.2 // indirect
	github.com/jessevdk/go-flags v1.5.0 // indirect
	github.com/jonboulle/clockwork v0.4.0 // indirect
	github.com/josharian/intern v1.0.0 // indirect
	github.com/jpillora/backoff v1.0.0 // indirect
	github.com/mailru/easyjson v0.7.7 // indirect
	github.com/mattermost/xml-roundtrip-validator v0.1.0 // indirect
	github.com/mattetti/filebuffer v1.0.1 // indirect
	github.com/mattn/go-runewidth v0.0.13 // indirect
	github.com/miekg/dns v1.1.51 // indirect
	github.com/mitchellh/go-testing-interface v1.14.1 // indirect
	github.com/modern-go/concurrent v0.0.0-20180306012644-bacd9c7ef1dd // indirect
	github.com/modern-go/reflect2 v1.0.2 // @grafana/alerting-squad-backend
	github.com/mpvl/unique v0.0.0-20150818121801-cbe035fff7de // indirect
	github.com/oklog/run v1.1.0 // indirect
	github.com/oklog/ulid v1.3.1 // indirect
	github.com/olekukonko/tablewriter v0.0.5 // @grafana/backend-platform
	github.com/pmezard/go-difflib v1.0.1-0.20181226105442-5d4384ee4fb2 // indirect
	github.com/prometheus/common/sigv4 v0.1.0 // indirect
	github.com/prometheus/exporter-toolkit v0.10.1-0.20230714054209-2f4150c63f97 // indirect
	github.com/prometheus/procfs v0.12.0 // indirect
	github.com/protocolbuffers/txtpbfmt v0.0.0-20220428173112-74888fd59c2b // indirect
	github.com/rs/cors v1.10.1 // indirect
	github.com/sean-/seed v0.0.0-20170313163322-e2103e2c3529 // indirect
	github.com/segmentio/encoding v0.3.6 // indirect
	github.com/sergi/go-diff v1.3.1 // indirect
	github.com/shurcooL/httpfs v0.0.0-20190707220628-8d4bc4ba7749 // indirect
	github.com/shurcooL/vfsgen v0.0.0-20200824052919-0d455de96546 // indirect
	github.com/sirupsen/logrus v1.9.3 // indirect
	github.com/stretchr/objx v0.5.0 // indirect
	github.com/uber/jaeger-lib v2.4.1+incompatible // indirect
	github.com/valyala/bytebufferpool v1.0.0 // indirect
	github.com/yudai/golcs v0.0.0-20170316035057-ecda9a501e82 // indirect
	go.mongodb.org/mongo-driver v1.13.1 // indirect
	go.opencensus.io v0.24.0 // indirect
	go.uber.org/atomic v1.11.0 // @grafana/alerting-squad-backend
	go.uber.org/goleak v1.3.0 // indirect
	golang.org/x/sys v0.15.0 // indirect
	golang.org/x/text v0.14.0 // @grafana/backend-platform
	golang.org/x/xerrors v0.0.0-20220907171357-04be3eba64a2 // indirect
	google.golang.org/appengine v1.6.8 // indirect
	google.golang.org/genproto v0.0.0-20231012201019-e917dd12ba7a // indirect; @grafana/backend-platform
)

require (
	cloud.google.com/go/kms v1.15.2 // @grafana/backend-platform
	github.com/Azure/azure-sdk-for-go/sdk/azidentity v1.4.0 // @grafana/backend-platform
	github.com/Azure/azure-sdk-for-go/sdk/keyvault/azkeys v0.9.0 // @grafana/backend-platform
	github.com/Azure/azure-storage-blob-go v0.15.0 // @grafana/backend-platform
	github.com/Azure/go-autorest/autorest/adal v0.9.23 // @grafana/backend-platform
	github.com/armon/go-radix v1.0.0 // @grafana/grafana-app-platform-squad
	github.com/blugelabs/bluge v0.1.9 // @grafana/backend-platform
	github.com/blugelabs/bluge_segment_api v0.2.0 // @grafana/backend-platform
	github.com/bufbuild/connect-go v1.10.0 // @grafana/observability-traces-and-profiling
	github.com/dlmiddlecote/sqlstats v1.0.2 // @grafana/backend-platform
	github.com/drone/drone-cli v1.6.1 // @grafana/grafana-delivery
	github.com/getkin/kin-openapi v0.120.0 // @grafana/grafana-operator-experience-squad
	github.com/golang-migrate/migrate/v4 v4.7.0 // @grafana/backend-platform
	github.com/google/go-github v17.0.0+incompatible // @grafana/grafana-delivery
	github.com/google/go-github/v45 v45.2.0 // @grafana/grafana-delivery
	github.com/grafana/codejen v0.0.3 // @grafana/dataviz-squad
	github.com/grafana/dskit v0.0.0-20240104111617-ea101a3b86eb // @grafana/backend-platform
	github.com/huandu/xstrings v1.3.1 // @grafana/partner-datasources
	github.com/jmoiron/sqlx v1.3.5 // @grafana/backend-platform
	github.com/matryer/is v1.4.0 // @grafana/grafana-as-code
	github.com/urfave/cli v1.22.14 // @grafana/backend-platform
	go.opentelemetry.io/contrib/instrumentation/google.golang.org/grpc/otelgrpc v0.46.1 // @grafana/plugins-platform-backend
	go.opentelemetry.io/contrib/propagators/jaeger v1.21.1 // @grafana/backend-platform
	go.opentelemetry.io/otel/exporters/otlp/otlptrace v1.21.0 // @grafana/backend-platform
	go.opentelemetry.io/otel/exporters/otlp/otlptrace/otlptracegrpc v1.21.0 // @grafana/backend-platform
	gocloud.dev v0.25.0 // @grafana/grafana-app-platform-squad
)

require (
	buf.build/gen/go/parca-dev/parca/bufbuild/connect-go v1.4.1-20221222094228-8b1d3d0f62e6.1 // @grafana/observability-traces-and-profiling
	buf.build/gen/go/parca-dev/parca/protocolbuffers/go v1.28.1-20221222094228-8b1d3d0f62e6.4 // @grafana/observability-traces-and-profiling
	github.com/Masterminds/semver/v3 v3.1.1 // @grafana/grafana-delivery
	github.com/alicebob/miniredis/v2 v2.30.1 // @grafana/alerting-squad-backend
	github.com/dave/dst v0.27.2 // @grafana/grafana-as-code
	github.com/go-jose/go-jose/v3 v3.0.1 // @grafana/grafana-authnz-team
	github.com/grafana/dataplane/examples v0.0.1 // @grafana/observability-metrics
	github.com/grafana/dataplane/sdata v0.0.6 // @grafana/observability-metrics
	github.com/grafana/kindsys v0.0.0-20230508162304-452481b63482 //  @grafana/grafana-as-code
	github.com/grafana/tempo v1.5.1-0.20230524121406-1dc1bfe7085b // @grafana/observability-traces-and-profiling
	github.com/grafana/thema v0.0.0-20230712153715-375c1b45f3ed // @grafana/grafana-as-code
	github.com/microsoft/go-mssqldb v1.5.0 // @grafana/grafana-bi-squad
	github.com/ory/fosite v0.44.1-0.20230317114349-45a6785cc54f // @grafana/grafana-authnz-team
	github.com/redis/go-redis/v9 v9.0.2 // @grafana/alerting-squad-backend
	github.com/xeipuuv/gojsonpointer v0.0.0-20180127040702-4e3ac2762d5f // @grafana/grafana-as-code
	go.opentelemetry.io/contrib/samplers/jaegerremote v0.15.1 // @grafana/backend-platform
	golang.org/x/mod v0.12.0 // @grafana/backend-platform
	gopkg.in/square/go-jose.v2 v2.6.0 // @grafana/grafana-authnz-team
	k8s.io/utils v0.0.0-20230726121419-3b25d923346b // @grafana/partner-datasources
)

require (
	github.com/spf13/cobra v1.7.0 // @grafana/grafana-app-platform-squad
	go.opentelemetry.io/otel v1.21.0 // @grafana/backend-platform
	k8s.io/apimachinery v0.29.0 // @grafana/grafana-app-platform-squad
	k8s.io/apiserver v0.29.0 // @grafana/grafana-app-platform-squad
	k8s.io/client-go v0.29.0 // @grafana/grafana-app-platform-squad
	k8s.io/component-base v0.29.0 // @grafana/grafana-app-platform-squad
	k8s.io/klog/v2 v2.110.1 // @grafana/grafana-app-platform-squad
	k8s.io/kube-openapi v0.0.0-20231214164306-ab13479f8bf8 // @grafana/grafana-app-platform-squad
)

require github.com/grafana/gofpdf v0.0.0-20231002120153-857cc45be447 // @grafana/sharing-squad

require github.com/grafana/pyroscope/api v0.3.0 // @grafana/observability-traces-and-profiling

require github.com/apache/arrow/go/v13 v13.0.0 // @grafana/observability-metrics

require (
	cloud.google.com/go v0.110.8 // indirect
	cloud.google.com/go/compute/metadata v0.2.3 // indirect
	github.com/Azure/azure-pipeline-go v0.2.3 // indirect
	github.com/Azure/go-ntlmssp v0.0.0-20220621081337-cb9428e4ac1e // indirect
	github.com/Masterminds/goutils v1.1.1 // indirect
	github.com/NYTimes/gziphandler v1.1.1 // indirect
	github.com/agext/levenshtein v1.2.1 // indirect
	github.com/alicebob/gopher-json v0.0.0-20200520072559-a9ecdc9d1d3a // indirect
	github.com/antlr/antlr4/runtime/Go/antlr/v4 v4.0.0-20230305170008-8188dc5388df // indirect
	github.com/apapsch/go-jsonmerge/v2 v2.0.0 // indirect
	github.com/apparentlymart/go-textseg/v13 v13.0.0 // indirect
	github.com/armon/go-metrics v0.4.1 // indirect
	github.com/bmatcuk/doublestar v1.1.1 // indirect
	github.com/buildkite/yaml v2.1.0+incompatible // indirect
	github.com/bwmarrin/snowflake v0.3.0 // @grafan/grafana-app-platform-squad
	github.com/centrifugal/protocol v0.10.0 // indirect
	github.com/cloudflare/circl v1.3.7 // indirect
	github.com/cockroachdb/errors v1.9.1 // indirect
	github.com/cockroachdb/logtags v0.0.0-20211118104740-dabe8e521a4f // indirect
	github.com/cockroachdb/redact v1.1.3 // indirect
	github.com/coreos/go-systemd/v22 v22.5.0 // indirect
	github.com/cpuguy83/go-md2man/v2 v2.0.2 // indirect
	github.com/cristalhq/jwt/v4 v4.0.2 // indirect
	github.com/dave/jennifer v1.5.0 // indirect
	github.com/davecgh/go-spew v1.1.1 // indirect
	github.com/dgraph-io/ristretto v0.1.1 // indirect
	github.com/dgryski/go-farm v0.0.0-20200201041132-a6ae2369ad13 // indirect
	github.com/docker/distribution v2.8.1+incompatible // indirect
	github.com/docker/go-connections v0.4.0 // indirect
	github.com/drone-runners/drone-runner-docker v1.8.2 // indirect
	github.com/drone/drone-go v1.7.1 // indirect
	github.com/drone/envsubst v1.0.3 // indirect
	github.com/drone/runner-go v1.12.0 // indirect
	github.com/dustin/go-humanize v1.0.1 // indirect
	github.com/ecordell/optgen v0.0.6 // indirect
	github.com/emicklei/go-restful/v3 v3.11.0 // indirect
	github.com/evanphx/json-patch v4.12.0+incompatible // indirect
	github.com/felixge/httpsnoop v1.0.4 // indirect
	github.com/fsnotify/fsnotify v1.7.0 // indirect
	github.com/getsentry/sentry-go v0.12.0 // indirect
	github.com/go-asn1-ber/asn1-ber v1.5.4 // indirect
	github.com/goccy/go-json v0.10.0 // indirect
	github.com/gogo/googleapis v1.4.1 // indirect
	github.com/gogo/status v1.1.1 // indirect
	github.com/golang-sql/sqlexp v0.1.0 // indirect
	github.com/google/cel-go v0.17.7 // indirect
	github.com/google/go-querystring v1.1.0 // indirect
	github.com/google/gofuzz v1.2.0 // indirect
	github.com/google/s2a-go v0.1.7 // indirect
	github.com/googleapis/enterprise-certificate-proxy v0.3.1 // indirect
	github.com/grafana/regexp v0.0.0-20221123153739-15dc172cd2db // indirect
	github.com/grafana/sqlds/v2 v2.3.10 // indirect
	github.com/hashicorp/go-cleanhttp v0.5.2 // indirect
	github.com/hashicorp/go-immutable-radix v1.3.1 // indirect
	github.com/hashicorp/go-retryablehttp v0.7.2 // indirect
	github.com/hashicorp/golang-lru/v2 v2.0.5 // indirect
	github.com/hashicorp/hcl v1.0.0 // indirect
	github.com/hashicorp/memberlist v0.5.0 // indirect
	github.com/inconshreveable/mousetrap v1.1.0 // indirect
	github.com/invopop/yaml v0.2.0 // indirect
	github.com/kballard/go-shellquote v0.0.0-20180428030007-95032a82bc51 // indirect
	github.com/klauspost/cpuid/v2 v2.2.4 // indirect
	github.com/kr/pretty v0.3.1 // indirect
	github.com/kr/text v0.2.0 // indirect
	github.com/magiconair/properties v1.8.6 // indirect
	github.com/mattn/go-colorable v0.1.13 // indirect
	github.com/mattn/go-ieproxy v0.0.3 // indirect
	github.com/mattn/goveralls v0.0.6 // indirect
	github.com/mitchellh/copystructure v1.2.0 // indirect
	github.com/mitchellh/mapstructure v1.5.0 //@grafana/grafana-authnz-team
	github.com/mitchellh/reflectwalk v1.0.2 // indirect
	github.com/mohae/deepcopy v0.0.0-20170929034955-c48cc78d4826 // indirect
	github.com/munnerz/goautoneg v0.0.0-20191010083416-a7dc8b61c822 // indirect
	github.com/opencontainers/go-digest v1.0.0 // indirect
	github.com/opencontainers/image-spec v1.0.3-0.20220512140940-7b36cea86235 // indirect
	github.com/opentracing-contrib/go-stdlib v1.0.0 // indirect
	github.com/ory/go-acc v0.2.6 // indirect
	github.com/ory/go-convenience v0.1.0 // indirect
	github.com/ory/viper v1.7.5 // indirect
	github.com/ory/x v0.0.214 // indirect
	github.com/pborman/uuid v1.2.0 // indirect
	github.com/pelletier/go-toml v1.9.5 // indirect
	github.com/perimeterx/marshmallow v1.1.5 // indirect
	github.com/redis/rueidis v1.0.16 // indirect
	github.com/remyoudompheng/bigfft v0.0.0-20230129092748-24d4a6f8daec // indirect
	github.com/rivo/uniseg v0.3.4 // indirect
	github.com/rogpeppe/go-internal v1.11.0 // indirect
	github.com/russross/blackfriday/v2 v2.1.0 // indirect
	github.com/segmentio/asm v1.2.0 // indirect
	github.com/shopspring/decimal v1.2.0 // indirect
	github.com/spf13/afero v1.9.2 // indirect
	github.com/spf13/cast v1.5.0 // indirect
	github.com/spf13/jwalterweatherman v1.1.0 // indirect
	github.com/spf13/pflag v1.0.5 // indirect
	github.com/stoewer/go-strcase v1.2.0 // indirect
	github.com/subosito/gotenv v1.4.1 // indirect
	github.com/unknwon/bra v0.0.0-20200517080246-1e3013ecaff8 // indirect
	github.com/unknwon/com v1.0.1 // indirect
	github.com/unknwon/log v0.0.0-20150304194804-e617c87089d3 // indirect
	github.com/xrash/smetrics v0.0.0-20201216005158-039620a65673 // indirect
	github.com/yuin/gopher-lua v1.1.0 // indirect
	github.com/zclconf/go-cty v1.13.0 // indirect
	github.com/zeebo/xxh3 v1.0.2 // indirect
	go.etcd.io/etcd/api/v3 v3.5.10 // indirect
	go.etcd.io/etcd/client/pkg/v3 v3.5.10 // indirect
	go.etcd.io/etcd/client/v3 v3.5.10 // indirect
	go.opentelemetry.io/contrib/instrumentation/net/http/otelhttp v0.46.1 // indirect
	go.opentelemetry.io/otel/metric v1.21.0 // indirect
	go.starlark.net v0.0.0-20230525235612-a134d8f9ddca // indirect
	go.uber.org/multierr v1.11.0 // indirect
	go.uber.org/zap v1.24.0 // indirect
	golang.org/x/term v0.15.0 // indirect
	google.golang.org/genproto/googleapis/api v0.0.0-20231002182017-d307bd883b97 // indirect
	google.golang.org/genproto/googleapis/rpc v0.0.0-20231016165738-49dd2c1f3d0b // indirect
	gopkg.in/fsnotify/fsnotify.v1 v1.4.7 // indirect
	gopkg.in/inf.v0 v0.9.1 // indirect
	gopkg.in/natefinch/lumberjack.v2 v2.2.1 // indirect
	k8s.io/api v0.29.0 // indirect
	k8s.io/kms v0.29.0 // indirect
	lukechampine.com/uint128 v1.2.0 // indirect
	modernc.org/cc/v3 v3.40.0 // indirect
	modernc.org/ccgo/v3 v3.16.13 // indirect
	modernc.org/libc v1.22.2 // indirect
	modernc.org/mathutil v1.5.0 // indirect
	modernc.org/memory v1.5.0 // indirect
	modernc.org/opt v0.1.3 // indirect
	modernc.org/sqlite v1.20.4 // indirect
	modernc.org/strutil v1.1.3 // indirect
	modernc.org/token v1.1.0 // indirect
	sigs.k8s.io/apiserver-network-proxy/konnectivity-client v0.28.0 // indirect
	sigs.k8s.io/json v0.0.0-20221116044647-bc3834ca7abd // indirect
	sigs.k8s.io/structured-merge-diff/v4 v4.4.1 // indirect
	sigs.k8s.io/yaml v1.3.0 // indirect; @grafana-app-platform-squad
)

require (
	cloud.google.com/go/compute v1.23.0 // indirect
	cloud.google.com/go/iam v1.1.2 // indirect
	filippo.io/age v1.1.1 // @grafana/grafana-authnz-team
	github.com/Azure/azure-sdk-for-go/sdk/azcore v1.8.0 // indirect
	github.com/Azure/azure-sdk-for-go/sdk/keyvault/internal v0.7.0 // indirect
	github.com/AzureAD/microsoft-authentication-library-for-go v1.1.1 // indirect
	github.com/Masterminds/sprig/v3 v3.2.2 // @grafana/backend-platform
	github.com/Microsoft/go-winio v0.6.0 // indirect
	github.com/ProtonMail/go-crypto v0.0.0-20230828082145-3c4c8a2d2371 // @grafana/plugins-platform-backend
	github.com/RoaringBitmap/roaring v0.9.4 // indirect
	github.com/axiomhq/hyperloglog v0.0.0-20191112132149-a4c4c47bc57f // indirect
	github.com/bits-and-blooms/bitset v1.2.0 // indirect
	github.com/blevesearch/go-porterstemmer v1.0.3 // indirect
	github.com/blevesearch/mmap-go v1.0.4 // indirect
	github.com/blevesearch/segment v0.9.0 // indirect
	github.com/blevesearch/snowballstem v0.9.0 // indirect
	github.com/blevesearch/vellum v1.0.7 // indirect
	github.com/blugelabs/ice v1.0.0 // indirect
	github.com/caio/go-tdigest v3.1.0+incompatible // indirect
	github.com/chromedp/cdproto v0.0.0-20220208224320-6efb837e6bc2 // indirect
	github.com/coreos/go-semver v0.3.1 // indirect
	github.com/dgryski/go-metro v0.0.0-20211217172704-adc40b04c140 // indirect
	github.com/docker/docker v23.0.4+incompatible // @grafana/grafana-delivery
	github.com/elazarl/goproxy v0.0.0-20230731152917-f99041a5c027 // indirect
	github.com/ghodss/yaml v1.0.1-0.20190212211648-25d852aebe32 // indirect
	github.com/go-logr/logr v1.3.0 // @grafana/grafana-app-platform-squad
	github.com/go-logr/stdr v1.2.2 // indirect
	github.com/grpc-ecosystem/grpc-gateway/v2 v2.16.2 // indirect
	github.com/hmarr/codeowners v1.1.2 // @grafana/grafana-as-code
	github.com/imdario/mergo v0.3.13 // indirect
	github.com/klauspost/compress v1.17.3 // indirect
	github.com/kylelemons/godebug v1.1.0 // indirect
	github.com/labstack/echo/v4 v4.10.2 // indirect
	github.com/labstack/gommon v0.4.0 // indirect
	github.com/mitchellh/go-wordwrap v1.0.1 // indirect
	github.com/mschoch/smat v0.2.0 // indirect
	github.com/pierrec/lz4/v4 v4.1.17 // indirect
	github.com/valyala/fasttemplate v1.2.2 // indirect
	github.com/wk8/go-ordered-map v1.0.0 // @grafana/backend-platform
	github.com/xlab/treeprint v1.2.0 // @grafana/observability-traces-and-profiling
	go.opentelemetry.io/proto/otlp v1.0.0 // indirect
)

require (
	github.com/go-errors/errors v1.4.2 // indirect
	github.com/golang-jwt/jwt/v5 v5.0.0 // indirect
	github.com/google/gnostic-models v0.6.8 // indirect
	github.com/grafana/grafana-openapi-client-go v0.0.0-20231213163343-bd475d63fb79 // @grafana/backend-platform
	github.com/matttproud/golang_protobuf_extensions/v2 v2.0.0 // indirect
)

// Use fork of crewjam/saml with fixes for some issues until changes get merged into upstream
replace github.com/crewjam/saml => github.com/grafana/saml v0.4.15-0.20231025143828-a6c0e9b86a4c

// Thema's thema CLI requires cobra, which eventually works its way down to go-hclog@v1.0.0.
// Upgrading affects backend plugins: https://github.com/grafana/grafana/pull/47653#discussion_r850508593
// No harm to Thema because it's only a dependency in its main package.
replace github.com/hashicorp/go-hclog => github.com/hashicorp/go-hclog v0.16.1

// This is a patched v0.8.2 intended to fix session.Find (and others) silently ignoring SQLITE_BUSY errors. This could
// happen, for example, during a read when the sqlite db is under heavy write load.
// This patch cherry picks compatible fixes from upstream xorm PR#1998 and can be reverted on upgrade to xorm v1.2.0+.
// This has also been patched to support the azuresql driver that is a thin wrapper for the mssql driver with azure authentication support.
//replace xorm.io/xorm => github.com/grafana/xorm v0.8.3-0.20230627081928-d04aa38aa209
replace xorm.io/xorm => ./pkg/util/xorm

// Use our fork of the upstream alertmanagers.
// This is required in order to get notification delivery errors from the receivers API.
replace github.com/prometheus/alertmanager => github.com/grafana/prometheus-alertmanager v0.25.1-0.20231027171310-70c52bf65758

exclude github.com/mattn/go-sqlite3 v2.0.3+incompatible
